…
**2. Why Casual users want to buy membership** First thing we thought is
casual user become a membership is because they need to commute
everyday, with divvy is one of the reliable bike sharing service, it can
be one of the reasons why casual users are buying the membership.  
We try to check the usage frequency of the casual users who will become
the potential to buy the membership.

``` r
frequent_casual
```

    ## # A tibble: 729 × 3
    ##     week started_at_date trips
    ##    <dbl> <date>          <int>
    ##  1     1 2020-01-01        390
    ##  2     1 2020-01-02        550
    ##  3     1 2020-01-03        405
    ##  4     1 2020-01-04        343
    ##  5     1 2020-01-05        361
    ##  6     1 2020-01-06        259
    ##  7     1 2020-01-07        331
    ##  8     1 2021-01-01        202
    ##  9     1 2021-01-02        413
    ## 10     1 2021-01-03        442
    ## # ℹ 719 more rows

``` r
casual_monthly_usage
```

    ## # A tibble: 24 × 2
    ##    month               total_trips
    ##    <dttm>                    <int>
    ##  1 2020-01-01 00:00:00        6744
    ##  2 2020-02-01 00:00:00       10764
    ##  3 2020-03-01 00:00:00       22377
    ##  4 2020-04-01 00:00:00       18659
    ##  5 2020-05-01 00:00:00       65092
    ##  6 2020-06-01 00:00:00      118206
    ##  7 2020-07-01 00:00:00      198705
    ##  8 2020-08-01 00:00:00      225067
    ##  9 2020-09-01 00:00:00      179346
    ## 10 2020-10-01 00:00:00      107016
    ## # ℹ 14 more rows
…
